{
  "result": {
    "item": "lycanitesmobs:demonstonetile_stairs",
    "count": 8
  },
  "pattern": [
    "B  ",
    "BB ",
    "BBB"
  ],
  "type": "forge:ore_shaped",
  "key": {
    "B": {
      "item": "lycanitesmobs:demonstonetile"
    }
  }
}