{
  "result": {
    "item": "lycanitesmobs:demonstone_slab",
    "data": 0,
    "count": 6
  },
  "pattern": [
    "BBB"
  ],
  "type": "forge:ore_shaped",
  "key": {
    "B": {
      "item": "lycanitesmobs:demonstone"
    }
  }
}