{
  "result": {
    "item": "lycanitesmobs:ironaxehead"
  },
  "pattern": [
    " I ",
    "IHI",
    " I "
  ],
  "key": {
    "H": {
      "item": "lycanitesmobs:woodenhilt"
    },
    "I": {
      "item": "minecraft:iron_ingot"
    }
  },
  "type": "minecraft:crafting_shaped"
}