{
  "result": {
    "item": "lycanitesmobs:poopscepter"
  },
  "pattern": [
    "CCC",
    "CRC",
    "CRC"
  ],
  "type": "forge:ore_shaped",
  "key": {
    "R": {
      "item": "minecraft:blaze_rod"
    },
    "C": {
      "item": "lycanitesmobs:poopcharge"
    }
  }
}