{
  "result": {
    "item": "lycanitesmobs:seashell_maki"
  },
  "ingredients": [
    {
      "item": "minecraft:vine"
    },
    {
      "item": "minecraft:wheat"
    },
    {
      "item": "lycanitesmobs:cooked_ika_meat"
    }
  ],
  "type": "forge:ore_shapeless"
}