{
  "result": {
    "item": "lycanitesmobs:shadowstonetile_stairs",
    "count": 8
  },
  "pattern": [
    "  B",
    " BB",
    "BBB"
  ],
  "type": "forge:ore_shaped",
  "key": {
    "B": {
      "item": "lycanitesmobs:shadowstonetile"
    }
  }
}