{
  "result": {
    "item": "lycanitesmobs:soulcubedemonic"
  },
  "pattern": [
    "BBB",
    "BSB",
    "BBB"
  ],
  "type": "forge:ore_shaped",
  "key": {
    "S": {
      "item": "minecraft:nether_star"
    },
    "B": {
      "item": "lycanitesmobs:demonstone"
    }
  }
}