{
    "conditions": [
        {
            "type": "ironchest:is_option_enabled",
            "config_setting": "enableShulkerBoxRecipes"
        }
    ],
    "type": "ironchest:shulker_box",
    "pattern": [
        "GGG",
        "GSG",
        "MMM"
    ],
    "key": {
        "M": {
            "item": "#DIAMOND"
        },
        "G": {
            "item": "#GLASS"
        },
        "S": {
            "item": "ironchest:iron_shulker_box_silver",
            "data": 4
        }
    },
    "result": {
        "item": "ironchest:iron_shulker_box_silver",
        "data": 2
    }
}