{
	"name": "raw_krake_meat",
	"loadDefault": true,
	"group": "items",
	"maxStackSize": 64,
	"food": {
		"hunger": 3,
		"saturation": 0.3,
		"alwaysEdible": true,
		"fast": false,
		"meat": true,
		"effects": [
			{
				"effectId": "lycanitesmobs:bleed",
				"duration": 10,
				"amplifier": 0,
				"chance": 1.0
			}
		]
	}
}