{
	"name": "geken",
	"creatureType": "beast",
	"groups": [
		"monster"
	],
	"entityClass": "com.lycanitesmobs.core.entity.creature.EntityGeken",
	"modelClass": "com.lycanitesmobs.client.model.creature.ModelGeken",
	"loadDefault": true,
	"enabled": true,
	"spawning": {
		"enabled": true,
		"spawners": ["monster", "beast"],
		"disableSubspecies": false,
		"dimensionIds": [-1, 1],
		"dimensionListType": "blacklist",
		"ignoreBiome": false,
		"biomes": ["jungle", "swamp"],
		"spawnWeight": 8,
		"dungeonWeight": 200,
		"spawnAreaLimit": 5,
		"spawnGroupMin": 1,
		"spawnGroupMax": 3,
		"spawnsInLight": false,
		"spawnsInDark": true,
		"worldDayMin": -1,
		"despawnNatural": true,
		"despawnForced": false
	},
	"width": 0.6,
	"height": 1.9,
	"experience": 5,
	"health": 20,
	"defense": 0,
	"armor": 0,
	"speed": 24,
	"damage": 2,
	"attackSpeed": 2,
	"rangedSpeed": 1,
	"effectDuration": 5,
	"effectAmplifier": 0,
	"pierce": 1,
	"sight": 24,
	"knockbackResistance": 0,
	"eggBackColor": "#00AA00",
	"eggForeColor": "#FFFF00",
	"subspecies": [
		{
			"index": 1,
			"name": "scarlet",
			"type": "uncommon"
		},
		{
			"index": 2,
			"name": "keppel",
			"type": "uncommon"
		}
	],
	"element": "fae",
	"diets": [
		"carnivore",
		"insectivore"
	],
	"peaceful": false,
	"summonable": true,
	"tameable": false,
	"mountable": false,
	"summonCost": 2,
	"dungeonLevel": 0,
	"drops": [
		{
			"item": "minecraft:bone",
			"minAmount": 1,
			"maxAmount": 3,
			"chance": 1
		}
	],
	"sizeScale": 1,
	"hitboxScale": 1
}