{
	"name": "raiko",
	"creatureType": "avian",
	"groups": [
		"opportunist"
	],
	"entityClass": "com.lycanitesmobs.core.entity.creature.EntityRaiko",
	"modelClass": "com.lycanitesmobs.client.model.creature.ModelRaiko",
	"loadDefault": true,
	"enabled": true,
	"spawning": {
		"enabled": true,
		"spawners": ["sky"],
		"disableSubspecies": false,
		"dimensionIds": [-1, 1],
		"dimensionListType": "blacklist",
		"ignoreBiome": false,
		"biomes": ["ocean"],
		"spawnWeight": 16,
		"dungeonWeight": 200,
		"spawnAreaLimit": 2,
		"spawnGroupMin": 1,
		"spawnGroupMax": 2,
		"spawnsInLight": false,
		"spawnsInDark": true,
		"worldDayMin": -1,
		"despawnNatural": true,
		"despawnForced": false
	},
	"width": 0.8,
	"height": 1.8,
	"experience": 10,
	"health": 10,
	"defense": 0,
	"armor": 0,
	"speed": 42,
	"damage": 2,
	"attackSpeed": 1,
	"rangedSpeed": 1,
	"effectDuration": 5,
	"effectAmplifier": -1,
	"pierce": 1,
	"sight": 32,
	"knockbackResistance": 0,
	"eggBackColor": "#CCCCDD",
	"eggForeColor": "#FF6633",
	"subspecies": [
		{
			"index": 1,
			"name": "azure",
			"type": "uncommon"
		},
		{
			"index": 2,
			"name": "golden",
			"type": "uncommon"
		}
	],
	"element": "earth",
	"diets": [
		"carnivore",
		"piscivore",
		"insectivore"
	],
	"peaceful": false,
	"summonable": false,
	"tameable": true,
	"mountable": true,
	"summonCost": 8,
	"dungeonLevel": 1,
	"drops": [
		{
			"item": "minecraft:bone",
			"minAmount": 1,
			"maxAmount": 3,
			"chance": 1
		},
		{
			"item": "minecraft:feather",
			"minAmount": 1,
			"maxAmount": 3,
			"chance": 1
		}
	],
	"sizeScale": 1,
	"hitboxScale": 1
}