{
	"name": "xaphan",
	"creatureType": "elemental",
	"groups": [
		"monster"
	],
	"entityClass": "com.lycanitesmobs.core.entity.creature.EntityXaphan",
	"modelClass": "com.lycanitesmobs.client.model.creature.ModelXaphan",
	"loadDefault": true,
	"enabled": true,
	"spawning": {
		"enabled": true,
		"spawners": [],
		"disableSubspecies": false,
		"dimensionIds": [],
		"dimensionListType": "blacklist",
		"ignoreBiome": false,
		"biomes": [],
		"spawnWeight": 8,
		"dungeonWeight": 200,
		"spawnAreaLimit": 5,
		"spawnGroupMin": 1,
		"spawnGroupMax": 3,
		"spawnsInLight": false,
		"spawnsInDark": true,
		"worldDayMin": -1,
		"despawnNatural": true,
		"despawnForced": false
	},
	"width": 0.8,
	"height": 1.6,
	"experience": 20,
	"health": 30,
	"defense": 0,
	"armor": 0,
	"speed": 28,
	"damage": 1,
	"attackSpeed": 1,
	"rangedSpeed": 0.25,
	"effectDuration": 5,
	"effectAmplifier": 1,
	"pierce": 1,
	"sight": 24,
	"knockbackResistance": 0,
	"eggBackColor": "#00af06",
	"eggForeColor": "#00f608",
	"subspecies": [
		{
			"index": 1,
			"name": "golden",
			"type": "uncommon"
		},
		{
			"index": 2,
			"name": "scarlet",
			"type": "uncommon"
		}
	],
	"element": "acid",
	"peaceful": false,
	"summonable": false,
	"tameable": false,
	"mountable": false,
	"summonCost": 2,
	"dungeonLevel": 1,
	"drops": [
		{
			"item": "minecraft:slime_ball",
			"minAmount": 1,
			"maxAmount": 2,
			"chance": 1
		},
		{
			"item": "minecraft:bone",
			"minAmount": 1,
			"maxAmount": 2,
			"chance": 1
		},
		{
			"item": "minecraft:blaze_rod",
			"minAmount": 1,
			"maxAmount": 1,
			"chance": 0.25
		},
		{
			"item": "lycanitesmobs:acidsplashcharge",
			"minAmount": 1,
			"maxAmount": 3,
			"chance": 1
		}
	],
	"sizeScale": 1,
	"hitboxScale": 1
}