{
	"parent": "lycanitesmobs:item/scepter",
	"textures": {
		"layer0": "lycanitesmobs:items/frostboltscepter"
	},
	"overrides": [
        {
            "predicate": {
                "using": 1
            },
            "model": "lycanitesmobs:item/frostboltscepter_fire"
        }
	]
}
