{
    "parent": "block/inner_stairs",
    "textures": {
        "bottom": "lycanitesmobs:blocks/demonstonebrick",
        "top": "lycanitesmobs:blocks/demonstonebrick",
        "side": "lycanitesmobs:blocks/demonstonebrick"
    }
}