{
    "parent": "block/outer_stairs",
    "textures": {
        "bottom": "lycanitesmobs:blocks/demonstone",
        "top": "lycanitesmobs:blocks/demonstone",
        "side": "lycanitesmobs:blocks/demonstone"
    }
}