{
	"parent": "block/half_slab",
	"textures": {
		"bottom": "lycanitesmobs:blocks/demonstonetile",
        "top": "lycanitesmobs:blocks/demonstonetile",
        "side": "lycanitesmobs:blocks/demonstonetile"
	}
}