{
    "parent": "lycanitesmobs:block/frostfire_up_alt",
    "textures": {
        "particle": "lycanitesmobs:blocks/frostfire_layer_1",
        "fire": "lycanitesmobs:blocks/frostfire_layer_1"
    }
}
