{
	"parent": "block/half_slab",
	"textures": {
		"bottom": "lycanitesmobs:blocks/lushstonetile",
        "top": "lycanitesmobs:blocks/lushstonetile",
        "side": "lycanitesmobs:blocks/lushstonetile"
	}
}