{
    "parent": "lycanitesmobs:block/scorchfire_up",
    "textures": {
        "particle": "lycanitesmobs:blocks/scorchfire_layer_0",
        "fire": "lycanitesmobs:blocks/scorchfire_layer_0"
    }
}
