{
	"parent": "block/upper_slab",
	"textures": {
		"bottom": "lycanitesmobs:blocks/shadowstonepolished",
        "top": "lycanitesmobs:blocks/shadowstonepolished",
        "side": "lycanitesmobs:blocks/shadowstoneslab"
	}
}