{
    "parent": "lycanitesmobs:block/shadowfire_side",
    "textures": {
        "particle": "lycanitesmobs:blocks/shadowfire_layer_0",
        "fire": "lycanitesmobs:blocks/shadowfire_layer_0"
    }
}
