[
  {
    "name": "Base",
    "parent": "",
    "centerX": "0.0",
    "centerY": "0.0",
    "centerZ": "-0.0",
    "rotationX": "0.0",
    "rotationY": "0.0",
    "rotationZ": "-0.0"
  },
  {
    "name": "TipA",
    "parent": "",
    "centerX": "0.0",
    "centerY": "0.0",
    "centerZ": "0.01",
    "rotationX": "0.0",
    "rotationY": "0.0",
    "rotationZ": "-0.0"
  }
]