{
	"type": "forge:ore_shaped",
	"pattern": [
		"  Z",
		" X ",
		"Y  "
	],
	"key": {
		"X": {
			"item": "aether:skyroot_stick"
		},
		"Y": {
			"type": "forge:ore_dict",
			"ore": "holystone"
		},
		"Z": {
			"type": "forge:ore_dict",
			"ore": "feather"
		}
	},
	"result": {
		"item": "aether:bolt",
		"count": 4,
		"data": 1
	}
}