{
    "variants": {
        "facing=north": { "model": "lycanitesmobs:equipmentforge_greater" },
        "facing=south": { "model": "lycanitesmobs:equipmentforge_greater", "y": 180 },
        "facing=west":  { "model": "lycanitesmobs:equipmentforge_greater", "y": 270 },
        "facing=east":  { "model": "lycanitesmobs:equipmentforge_greater", "y": 90 }
    }
}
